{
    "type":"minecraft:crafting_shaped",
    "pattern":[
        "W",
        "/",
        "/"
    ],
    "key":{
        "W":[{
            "item": "realmshift:nemosil_musa_wood"
        }],
        "/":{
            "item": "minecraft:stick"
        }
    },
    "result":{
        "item": "minecraft:wooden_shovel"
    }
}