{
    "parent":"block/cube",
    "textures":{
        "particle":"realmshift:blocks/nemosil/dirt0",
        "north":"realmshift:blocks/nemosil/dirt0",
        "south":"realmshift:blocks/nemosil/dirt0",
        "west":"realmshift:blocks/nemosil/dirt0",
        "east":"realmshift:blocks/nemosil/dirt0",
        "up":"realmshift:blocks/nemosil/dirt1",
        "down":"realmshift:blocks/nemosil/dirt0"
    }
}