{
    "parent": "block/slab",
    "textures": {
        "bottom": "realmshift:blocks/nemosil/rock0",
        "top": "realmshift:blocks/nemosil/rock0",
        "side": "realmshift:blocks/nemosil/rock0"
    }
}
